…
TradingView Trade List:
  Total rows: 18 
  Columns: 交易 #, 类型, 日期/时间, 信号, 价格 USDT, 仓位大小（数量）, 仓位大小（价值）, 净损益 USDT, 净损益 %, 最大交易获利 USDT, 最大交易获利 %, 交易亏损 USDT, 交易亏损 %, 累计P&L USDT, 累计P&L % 

TradingView Properties:
# A tibble: 25 × 2
   name         value                                       
   <chr>        <chr>                                       
 1 交易范围     2023年5月06日, 02:45 — 2025年10月27日, 01:45
 2 回测范围     2023年5月06日, 02:00 — 2025年10月27日, 01:45
 3 商品代码     BINANCE:PEPEUSDT                            
 4 时间周期     15 分钟                                     
 5 点值         1                                           
 6 图表类型     K线图                                       
 7 货币         USDT                                        
 8 Tick大小     0.00000001                                  
 9 精确度       系统预设                                    
10 下跌回看天数 3                                           
# ℹ 15 more rows
…
